…
wide <-
  bind_rows(
  jan2019, feb2019, mar2019, apr2019, may2019, jun2019, jul2019, aug2019, sep2019, oct2019, nov2019, dec2019,
  jan2020, feb2020, mar2020, apr2020, may2020, jun2020, jul2020, aug2020, sep2020, oct2020, nov2020, dec2020,
  jan2021, feb2021, mar2021, apr2021, may2021, jun2021, jul2021, aug2021, sep2021, oct2021, nov2021, dec2021,
  jan2022, feb2022, mar2022, apr2022, may2022, jun2022, jul2022, aug2022, sep2022, oct2022, nov2022, dec2022)
as_tibble(wide)
```

    ## # A tibble: 30,001 × 217
    ##    from    to    forecast actual index biomass  coal imports   gas nuclear other
    ##    <chr>   <chr>    <int>  <int> <ord>   <dbl> <dbl>   <dbl> <dbl>   <dbl> <dbl>
    ##  1 2019-0… 2019…      221    220 mode…     3     3.3     5    41.8    16.1   0.1
    ##  2 2019-0… 2019…      224    216 mode…     2.5   2.7     5.3  41.9    16.3   0.1
    ##  3 2019-0… 2019…      219    220 mode…     2.4   2.7     5.4  42.4    16.4   0.1
    ##  4 2019-0… 2019…      217    221 mode…     2.4   2.8     5.2  42.6    16.5   0.1
    ##  5 2019-0… 2019…      222    224 mode…     2.5   2.7     5.3  43      16.7   0.1
    ##  6 2019-0… 2019…      224    232 mode…     2.5   3       6.3  44.1    16.8   0.1
    ##  7 2019-0… 2019…      227    246 mode…     2.3   3       6.1  46.5    16.8   0.1
    ##  8 2019-0… 2019…      237    260 high      2.9   3.4     3.7  50      16.8   0.1
    ##  9 2019-0… 2019…      253    270 high      3.6   4.8     4.6  48.3    16.1   0.1
    ## 10 2019-0… 2019…      265    271 high      3.3   5       6.1  48.9    15.4   0.1
    ## # ℹ 29,991 more rows
    ## # ℹ 206 more variables: hydro <dbl>, solar <dbl>, wind <dbl>, forecast_1 <int>,
    ## #   forecast_2 <int>, forecast_3 <int>, forecast_4 <int>, forecast_5 <int>,
    ## #   forecast_6 <int>, forecast_7 <int>, forecast_8 <int>, forecast_9 <int>,
    ## #   forecast_10 <int>, forecast_11 <int>, forecast_12 <int>, forecast_13 <int>,
    ## #   forecast_14 <int>, forecast_15 <int>, forecast_16 <int>, forecast_17 <int>,
    ## #   forecast_18 <int>, index_1 <chr>, index_2 <chr>, index_3 <chr>, …
…
long <-
  bind_rows(
  jan2019, feb2019, mar2019, apr2019, may2019, jun2019, jul2019, aug2019, sep2019, oct2019, nov2019, dec2019,
  jan2020, feb2020, mar2020, apr2020, may2020, jun2020, jul2020, aug2020, sep2020, oct2020, nov2020, dec2020,
  jan2021, feb2021, mar2021, apr2021, may2021, jun2021, jul2021, aug2021, sep2021, oct2021, nov2021, dec2021,
  jan2022, feb2022, mar2022, apr2022, may2022, jun2022, jul2022, aug2022, sep2022, oct2022, nov2022, dec2022)
as_tibble(long)
```

    ## # A tibble: 540,000 × 21
    ##    from  to    regionid dnoregion shortname forecast index biomass  coal imports
    ##    <chr> <chr>    <int> <chr>     <chr>        <int> <ord>   <dbl> <dbl>   <dbl>
    ##  1 2019… 2019…        1 Scottish… North Sc…       93 low       0     0         0
    ##  2 2019… 2019…        2 SP Distr… South Sc…       31 very…     1.4   0         0
    ##  3 2019… 2019…        3 Electric… North We…       72 low       0     0         0
    ##  4 2019… 2019…        4 NPG Nort… North Ea…       11 very…     9.9   0         0
    ##  5 2019… 2019…        5 NPG York… Yorkshire      334 high     17.4   7.4       0
    ##  6 2019… 2019…        6 SP Manweb North Wa…      117 low       0.3   0.1       0
    ##  7 2019… 2019…        7 WPD Sout… South Wa…      357 high      0     0         0
    ##  8 2019… 2019…        8 WPD West… West Mid…      242 mode…     2.7   3.1       0
    ##  9 2019… 2019…        9 WPD East… East Mid…      415 very…     0    18.5       0
    ## 10 2019… 2019…       10 UKPN East East Eng…      112 low       0     0         0
    ## # ℹ 539,990 more rows
    ## # ℹ 11 more variables: gas <dbl>, nuclear <dbl>, other <dbl>, hydro <dbl>,
    ## #   solar <dbl>, wind <dbl>, yyyy <chr>, mm <chr>, yyyymm <chr>, date <date>,
    ## #   season <ord>
…
